-- Merging decision tree log ---
manifest
ADDED from /Users/facosta/Desktop/ant_race_sg/android/app/src/main/AndroidManifest.xml:1:1-26:12
INJECTED from /Users/facosta/Desktop/ant_race_sg/android/app/src/main/AndroidManifest.xml:1:1-26:12
INJECTED from /Users/facosta/Desktop/ant_race_sg/android/app/src/main/AndroidManifest.xml:1:1-26:12
INJECTED from /Users/facosta/Desktop/ant_race_sg/android/app/src/main/AndroidManifest.xml:1:1-26:12
MERGED from /Users/facosta/Desktop/ant_race_sg/android/app/src/main/AndroidManifest.xml:1:1-26:12
MERGED from [com.facebook.react:react-native:0.61.5] /Users/facosta/.gradle/caches/transforms-2/files-2.1/a780f749b4a054082581c8feea76c126/AndroidManifest.xml:2:1-13:12
MERGED from [org.webkit:android-jsc:r245459] /Users/facosta/.gradle/caches/transforms-2/files-2.1/d6c292c7aa08f2de9c3a28ccfbcc12d2/AndroidManifest.xml:2:1-11:12
MERGED from [androidx.appcompat:appcompat:1.0.2] /Users/facosta/.gradle/caches/transforms-2/files-2.1/27d4b8b4556739b0d8d2553154e0d6d9/AndroidManifest.xml:17:1-22:12
MERGED from [com.facebook.fresco:fresco:2.0.0] /Users/facosta/.gradle/caches/transforms-2/files-2.1/dce57824ceaf5e8cfc23e4d1ff2aec19/AndroidManifest.xml:2:1-9:12
MERGED from [com.facebook.fresco:imagepipeline-okhttp3:2.0.0] /Users/facosta/.gradle/caches/transforms-2/files-2.1/65011508408df64ddef3e9b730c99de3/AndroidManifest.xml:2:1-9:12
MERGED from [com.facebook.fresco:drawee:2.0.0] /Users/facosta/.gradle/caches/transforms-2/files-2.1/1cbd71a2b6679333679c13faddc9ac66/AndroidManifest.xml:2:1-9:12
MERGED from [com.facebook.fresco:nativeimagefilters:2.0.0] /Users/facosta/.gradle/caches/transforms-2/files-2.1/15362b9f1a0224d96808b2d6d8d6ae45/AndroidManifest.xml:2:1-9:12
MERGED from [com.facebook.fresco:imagepipeline:2.0.0] /Users/facosta/.gradle/caches/transforms-2/files-2.1/ce1ee45e60851bf595407098835c9e7e/AndroidManifest.xml:2:1-9:12
MERGED from [com.facebook.fresco:nativeimagetranscoder:2.0.0] /Users/facosta/.gradle/caches/transforms-2/files-2.1/660ab02d82eba8695ca2fa724c9a04a9/AndroidManifest.xml:2:1-9:12
MERGED from [com.facebook.fresco:imagepipeline-base:2.0.0] /Users/facosta/.gradle/caches/transforms-2/files-2.1/f36f1b3282a828b270c2e450016f2a56/AndroidManifest.xml:2:1-9:12
MERGED from [com.facebook.soloader:soloader:0.6.0] /Users/facosta/.gradle/caches/transforms-2/files-2.1/e2b313caecc9950a615aee15e0a372af/AndroidManifest.xml:2:1-13:12
MERGED from [androidx.fragment:fragment:1.0.0] /Users/facosta/.gradle/caches/transforms-2/files-2.1/8e9e6ca8268a59ee4a4cfa88586ca5c2/AndroidManifest.xml:17:1-22:12
MERGED from [androidx.vectordrawable:vectordrawable-animated:1.0.0] /Users/facosta/.gradle/caches/transforms-2/files-2.1/90179b4ec17ff75af8bfb51c7877e78c/AndroidManifest.xml:17:1-22:12
MERGED from [androidx.legacy:legacy-support-core-ui:1.0.0] /Users/facosta/.gradle/caches/transforms-2/files-2.1/1e2eb27353db9129538c0e3574f87253/AndroidManifest.xml:17:1-22:12
MERGED from [androidx.legacy:legacy-support-core-utils:1.0.0] /Users/facosta/.gradle/caches/transforms-2/files-2.1/858c22f1f614adeb1c92937cc25d1f8c/AndroidManifest.xml:17:1-22:12
MERGED from [androidx.vectordrawable:vectordrawable:1.0.1] /Users/facosta/.gradle/caches/transforms-2/files-2.1/3059cba55cd238c015401e5a8b76f334/AndroidManifest.xml:17:1-22:12
MERGED from [androidx.loader:loader:1.0.0] /Users/facosta/.gradle/caches/transforms-2/files-2.1/148daff687f034a6d447b496a7163d39/AndroidManifest.xml:17:1-22:12
MERGED from [androidx.viewpager:viewpager:1.0.0] /Users/facosta/.gradle/caches/transforms-2/files-2.1/8d54a97091973d423bdedc98696b55f2/AndroidManifest.xml:17:1-22:12
MERGED from [androidx.coordinatorlayout:coordinatorlayout:1.0.0] /Users/facosta/.gradle/caches/transforms-2/files-2.1/8c507400dcc61a90e89f4a57da137c7d/AndroidManifest.xml:17:1-22:12
MERGED from [androidx.drawerlayout:drawerlayout:1.0.0] /Users/facosta/.gradle/caches/transforms-2/files-2.1/10ab428b9272cf763183a22b4c6b67c0/AndroidManifest.xml:17:1-22:12
MERGED from [androidx.slidingpanelayout:slidingpanelayout:1.0.0] /Users/facosta/.gradle/caches/transforms-2/files-2.1/c923fc88e14c95487324f0376ae4fbe8/AndroidManifest.xml:17:1-22:12
MERGED from [androidx.customview:customview:1.0.0] /Users/facosta/.gradle/caches/transforms-2/files-2.1/640c709c5324d5937e383a3fa5919fdb/AndroidManifest.xml:17:1-22:12
MERGED from [androidx.swiperefreshlayout:swiperefreshlayout:1.0.0] /Users/facosta/.gradle/caches/transforms-2/files-2.1/ad0bbf7b8809cecb8ade02eba7ecfc5d/AndroidManifest.xml:17:1-22:12
MERGED from [androidx.asynclayoutinflater:asynclayoutinflater:1.0.0] /Users/facosta/.gradle/caches/transforms-2/files-2.1/828adcd6dcc879879b4f39fe6f07dfe3/AndroidManifest.xml:17:1-22:12
MERGED from [androidx.core:core:1.0.1] /Users/facosta/.gradle/caches/transforms-2/files-2.1/149abca8e861b25287910ecf55a4dd90/AndroidManifest.xml:17:1-24:12
MERGED from [androidx.versionedparcelable:versionedparcelable:1.0.0] /Users/facosta/.gradle/caches/transforms-2/files-2.1/a7ffca991219aee7e5a5f6ddfa171c27/AndroidManifest.xml:17:1-25:12
MERGED from [androidx.cursoradapter:cursoradapter:1.0.0] /Users/facosta/.gradle/caches/transforms-2/files-2.1/715d0603bb76c5ddd38b3f4709dfe2f3/AndroidManifest.xml:17:1-22:12
MERGED from [androidx.lifecycle:lifecycle-runtime:2.0.0] /Users/facosta/.gradle/caches/transforms-2/files-2.1/9d6a297c9b8240995fd1e9f129ee0c86/AndroidManifest.xml:17:1-22:12
MERGED from [androidx.documentfile:documentfile:1.0.0] /Users/facosta/.gradle/caches/transforms-2/files-2.1/770d46a84ad5a29e647c958b27dca823/AndroidManifest.xml:17:1-22:12
MERGED from [androidx.localbroadcastmanager:localbroadcastmanager:1.0.0] /Users/facosta/.gradle/caches/transforms-2/files-2.1/b8073cf0a6c23cb126f04d3da4fc9a08/AndroidManifest.xml:17:1-22:12
MERGED from [androidx.print:print:1.0.0] /Users/facosta/.gradle/caches/transforms-2/files-2.1/23a9c2a4ab32e5f0dbeaca113b479da5/AndroidManifest.xml:17:1-22:12
MERGED from [androidx.lifecycle:lifecycle-viewmodel:2.0.0] /Users/facosta/.gradle/caches/transforms-2/files-2.1/655e807d4d7c62411e7cae5070c4f68c/AndroidManifest.xml:17:1-22:12
MERGED from [androidx.lifecycle:lifecycle-livedata:2.0.0] /Users/facosta/.gradle/caches/transforms-2/files-2.1/ef7205cebcf2d150e0d4aaff48c86eb1/AndroidManifest.xml:17:1-22:12
MERGED from [androidx.lifecycle:lifecycle-livedata-core:2.0.0] /Users/facosta/.gradle/caches/transforms-2/files-2.1/cebf511fd438599ee588a26939fa305f/AndroidManifest.xml:17:1-22:12
MERGED from [androidx.arch.core:core-runtime:2.0.0] /Users/facosta/.gradle/caches/transforms-2/files-2.1/8a8bdcc8043cce11d5425794a3d68725/AndroidManifest.xml:17:1-22:12
MERGED from [androidx.interpolator:interpolator:1.0.0] /Users/facosta/.gradle/caches/transforms-2/files-2.1/6e2731dcd5b27a722bd9d7b87dbba77b/AndroidManifest.xml:17:1-22:12
MERGED from [com.facebook.fresco:fbcore:2.0.0] /Users/facosta/.gradle/caches/transforms-2/files-2.1/f39959c290cf3610d3d9160d2906eafd/AndroidManifest.xml:2:1-9:12
INJECTED from /Users/facosta/Desktop/ant_race_sg/android/app/src/debug/AndroidManifest.xml:2:1-8:12
INJECTED from /Users/facosta/Desktop/ant_race_sg/android/app/src/debug/AndroidManifest.xml:2:1-8:12
INJECTED from /Users/facosta/Desktop/ant_race_sg/android/app/src/debug/AndroidManifest.xml:2:1-8:12
	package
		ADDED from /Users/facosta/Desktop/ant_race_sg/android/app/src/main/AndroidManifest.xml:2:3-28
		INJECTED from /Users/facosta/Desktop/ant_race_sg/android/app/src/main/AndroidManifest.xml
		ADDED from /Users/facosta/Desktop/ant_race_sg/android/app/src/main/AndroidManifest.xml:2:3-28
		INJECTED from /Users/facosta/Desktop/ant_race_sg/android/app/src/debug/AndroidManifest.xml
	android:versionName
		INJECTED from /Users/facosta/Desktop/ant_race_sg/android/app/src/main/AndroidManifest.xml
		ADDED from /Users/facosta/Desktop/ant_race_sg/android/app/src/main/AndroidManifest.xml:1:1-26:12
		INJECTED from /Users/facosta/Desktop/ant_race_sg/android/app/src/debug/AndroidManifest.xml
	xmlns:tools
		ADDED from /Users/facosta/Desktop/ant_race_sg/android/app/src/debug/AndroidManifest.xml:3:5-51
	android:versionCode
		INJECTED from /Users/facosta/Desktop/ant_race_sg/android/app/src/main/AndroidManifest.xml
		ADDED from /Users/facosta/Desktop/ant_race_sg/android/app/src/main/AndroidManifest.xml:1:1-26:12
		INJECTED from /Users/facosta/Desktop/ant_race_sg/android/app/src/debug/AndroidManifest.xml
	xmlns:android
		ADDED from /Users/facosta/Desktop/ant_race_sg/android/app/src/main/AndroidManifest.xml:1:11-69
uses-permission#android.permission.INTERNET
ADDED from /Users/facosta/Desktop/ant_race_sg/android/app/src/main/AndroidManifest.xml:4:5-67
	android:name
		ADDED from /Users/facosta/Desktop/ant_race_sg/android/app/src/main/AndroidManifest.xml:4:22-64
application
ADDED from /Users/facosta/Desktop/ant_race_sg/android/app/src/main/AndroidManifest.xml:6:5-24:19
MERGED from /Users/facosta/Desktop/ant_race_sg/android/app/src/main/AndroidManifest.xml:6:5-24:19
MERGED from /Users/facosta/Desktop/ant_race_sg/android/app/src/main/AndroidManifest.xml:6:5-24:19
MERGED from [com.facebook.react:react-native:0.61.5] /Users/facosta/.gradle/caches/transforms-2/files-2.1/a780f749b4a054082581c8feea76c126/AndroidManifest.xml:11:5-20
MERGED from [com.facebook.react:react-native:0.61.5] /Users/facosta/.gradle/caches/transforms-2/files-2.1/a780f749b4a054082581c8feea76c126/AndroidManifest.xml:11:5-20
MERGED from [com.facebook.soloader:soloader:0.6.0] /Users/facosta/.gradle/caches/transforms-2/files-2.1/e2b313caecc9950a615aee15e0a372af/AndroidManifest.xml:11:5-20
MERGED from [com.facebook.soloader:soloader:0.6.0] /Users/facosta/.gradle/caches/transforms-2/files-2.1/e2b313caecc9950a615aee15e0a372af/AndroidManifest.xml:11:5-20
MERGED from [androidx.core:core:1.0.1] /Users/facosta/.gradle/caches/transforms-2/files-2.1/149abca8e861b25287910ecf55a4dd90/AndroidManifest.xml:22:5-89
MERGED from [androidx.core:core:1.0.1] /Users/facosta/.gradle/caches/transforms-2/files-2.1/149abca8e861b25287910ecf55a4dd90/AndroidManifest.xml:22:5-89
MERGED from [androidx.versionedparcelable:versionedparcelable:1.0.0] /Users/facosta/.gradle/caches/transforms-2/files-2.1/a7ffca991219aee7e5a5f6ddfa171c27/AndroidManifest.xml:22:5-23:19
MERGED from [androidx.versionedparcelable:versionedparcelable:1.0.0] /Users/facosta/.gradle/caches/transforms-2/files-2.1/a7ffca991219aee7e5a5f6ddfa171c27/AndroidManifest.xml:22:5-23:19
	android:appComponentFactory
		ADDED from [androidx.core:core:1.0.1] /Users/facosta/.gradle/caches/transforms-2/files-2.1/149abca8e861b25287910ecf55a4dd90/AndroidManifest.xml:22:18-86
	android:label
		ADDED from /Users/facosta/Desktop/ant_race_sg/android/app/src/main/AndroidManifest.xml:8:7-39
		ADDED from /Users/facosta/Desktop/ant_race_sg/android/app/src/main/AndroidManifest.xml:8:7-39
	tools:ignore
		ADDED from /Users/facosta/Desktop/ant_race_sg/android/app/src/debug/AndroidManifest.xml:7:75-114
	android:roundIcon
		ADDED from /Users/facosta/Desktop/ant_race_sg/android/app/src/main/AndroidManifest.xml:10:7-52
		ADDED from /Users/facosta/Desktop/ant_race_sg/android/app/src/main/AndroidManifest.xml:10:7-52
	tools:targetApi
		ADDED from /Users/facosta/Desktop/ant_race_sg/android/app/src/debug/AndroidManifest.xml:7:54-74
	android:icon
		ADDED from /Users/facosta/Desktop/ant_race_sg/android/app/src/main/AndroidManifest.xml:9:7-41
		ADDED from /Users/facosta/Desktop/ant_race_sg/android/app/src/main/AndroidManifest.xml:9:7-41
	android:allowBackup
		ADDED from /Users/facosta/Desktop/ant_race_sg/android/app/src/main/AndroidManifest.xml:11:7-34
		ADDED from /Users/facosta/Desktop/ant_race_sg/android/app/src/main/AndroidManifest.xml:11:7-34
	android:theme
		ADDED from /Users/facosta/Desktop/ant_race_sg/android/app/src/main/AndroidManifest.xml:12:7-38
		ADDED from /Users/facosta/Desktop/ant_race_sg/android/app/src/main/AndroidManifest.xml:12:7-38
	android:usesCleartextTraffic
		ADDED from /Users/facosta/Desktop/ant_race_sg/android/app/src/debug/AndroidManifest.xml:7:18-53
	android:name
		ADDED from /Users/facosta/Desktop/ant_race_sg/android/app/src/main/AndroidManifest.xml:7:7-38
		ADDED from /Users/facosta/Desktop/ant_race_sg/android/app/src/main/AndroidManifest.xml:7:7-38
activity#com.ant_race_sg.MainActivity
ADDED from /Users/facosta/Desktop/ant_race_sg/android/app/src/main/AndroidManifest.xml:13:7-22:18
	android:label
		ADDED from /Users/facosta/Desktop/ant_race_sg/android/app/src/main/AndroidManifest.xml:15:9-41
	android:windowSoftInputMode
		ADDED from /Users/facosta/Desktop/ant_race_sg/android/app/src/main/AndroidManifest.xml:17:9-51
	android:configChanges
		ADDED from /Users/facosta/Desktop/ant_race_sg/android/app/src/main/AndroidManifest.xml:16:9-79
	android:name
		ADDED from /Users/facosta/Desktop/ant_race_sg/android/app/src/main/AndroidManifest.xml:14:9-37
intent-filter#action:name:android.intent.action.MAIN+category:name:android.intent.category.LAUNCHER
ADDED from /Users/facosta/Desktop/ant_race_sg/android/app/src/main/AndroidManifest.xml:18:9-21:25
action#android.intent.action.MAIN
ADDED from /Users/facosta/Desktop/ant_race_sg/android/app/src/main/AndroidManifest.xml:19:13-65
	android:name
		ADDED from /Users/facosta/Desktop/ant_race_sg/android/app/src/main/AndroidManifest.xml:19:21-62
category#android.intent.category.LAUNCHER
ADDED from /Users/facosta/Desktop/ant_race_sg/android/app/src/main/AndroidManifest.xml:20:13-73
	android:name
		ADDED from /Users/facosta/Desktop/ant_race_sg/android/app/src/main/AndroidManifest.xml:20:23-70
activity#com.facebook.react.devsupport.DevSettingsActivity
ADDED from /Users/facosta/Desktop/ant_race_sg/android/app/src/main/AndroidManifest.xml:23:7-84
	android:name
		ADDED from /Users/facosta/Desktop/ant_race_sg/android/app/src/main/AndroidManifest.xml:23:17-81
uses-sdk
INJECTED from /Users/facosta/Desktop/ant_race_sg/android/app/src/main/AndroidManifest.xml reason: use-sdk injection requested
INJECTED from /Users/facosta/Desktop/ant_race_sg/android/app/src/main/AndroidManifest.xml
INJECTED from /Users/facosta/Desktop/ant_race_sg/android/app/src/main/AndroidManifest.xml
MERGED from [com.facebook.react:react-native:0.61.5] /Users/facosta/.gradle/caches/transforms-2/files-2.1/a780f749b4a054082581c8feea76c126/AndroidManifest.xml:7:5-9:41
MERGED from [com.facebook.react:react-native:0.61.5] /Users/facosta/.gradle/caches/transforms-2/files-2.1/a780f749b4a054082581c8feea76c126/AndroidManifest.xml:7:5-9:41
MERGED from [org.webkit:android-jsc:r245459] /Users/facosta/.gradle/caches/transforms-2/files-2.1/d6c292c7aa08f2de9c3a28ccfbcc12d2/AndroidManifest.xml:7:5-9:41
MERGED from [org.webkit:android-jsc:r245459] /Users/facosta/.gradle/caches/transforms-2/files-2.1/d6c292c7aa08f2de9c3a28ccfbcc12d2/AndroidManifest.xml:7:5-9:41
MERGED from [androidx.appcompat:appcompat:1.0.2] /Users/facosta/.gradle/caches/transforms-2/files-2.1/27d4b8b4556739b0d8d2553154e0d6d9/AndroidManifest.xml:20:5-44
MERGED from [androidx.appcompat:appcompat:1.0.2] /Users/facosta/.gradle/caches/transforms-2/files-2.1/27d4b8b4556739b0d8d2553154e0d6d9/AndroidManifest.xml:20:5-44
MERGED from [com.facebook.fresco:fresco:2.0.0] /Users/facosta/.gradle/caches/transforms-2/files-2.1/dce57824ceaf5e8cfc23e4d1ff2aec19/AndroidManifest.xml:5:5-7:41
MERGED from [com.facebook.fresco:fresco:2.0.0] /Users/facosta/.gradle/caches/transforms-2/files-2.1/dce57824ceaf5e8cfc23e4d1ff2aec19/AndroidManifest.xml:5:5-7:41
MERGED from [com.facebook.fresco:imagepipeline-okhttp3:2.0.0] /Users/facosta/.gradle/caches/transforms-2/files-2.1/65011508408df64ddef3e9b730c99de3/AndroidManifest.xml:5:5-7:41
MERGED from [com.facebook.fresco:imagepipeline-okhttp3:2.0.0] /Users/facosta/.gradle/caches/transforms-2/files-2.1/65011508408df64ddef3e9b730c99de3/AndroidManifest.xml:5:5-7:41
MERGED from [com.facebook.fresco:drawee:2.0.0] /Users/facosta/.gradle/caches/transforms-2/files-2.1/1cbd71a2b6679333679c13faddc9ac66/AndroidManifest.xml:5:5-7:41
MERGED from [com.facebook.fresco:drawee:2.0.0] /Users/facosta/.gradle/caches/transforms-2/files-2.1/1cbd71a2b6679333679c13faddc9ac66/AndroidManifest.xml:5:5-7:41
MERGED from [com.facebook.fresco:nativeimagefilters:2.0.0] /Users/facosta/.gradle/caches/transforms-2/files-2.1/15362b9f1a0224d96808b2d6d8d6ae45/AndroidManifest.xml:5:5-7:41
MERGED from [com.facebook.fresco:nativeimagefilters:2.0.0] /Users/facosta/.gradle/caches/transforms-2/files-2.1/15362b9f1a0224d96808b2d6d8d6ae45/AndroidManifest.xml:5:5-7:41
MERGED from [com.facebook.fresco:imagepipeline:2.0.0] /Users/facosta/.gradle/caches/transforms-2/files-2.1/ce1ee45e60851bf595407098835c9e7e/AndroidManifest.xml:5:5-7:41
MERGED from [com.facebook.fresco:imagepipeline:2.0.0] /Users/facosta/.gradle/caches/transforms-2/files-2.1/ce1ee45e60851bf595407098835c9e7e/AndroidManifest.xml:5:5-7:41
MERGED from [com.facebook.fresco:nativeimagetranscoder:2.0.0] /Users/facosta/.gradle/caches/transforms-2/files-2.1/660ab02d82eba8695ca2fa724c9a04a9/AndroidManifest.xml:5:5-7:41
MERGED from [com.facebook.fresco:nativeimagetranscoder:2.0.0] /Users/facosta/.gradle/caches/transforms-2/files-2.1/660ab02d82eba8695ca2fa724c9a04a9/AndroidManifest.xml:5:5-7:41
MERGED from [com.facebook.fresco:imagepipeline-base:2.0.0] /Users/facosta/.gradle/caches/transforms-2/files-2.1/f36f1b3282a828b270c2e450016f2a56/AndroidManifest.xml:5:5-7:41
MERGED from [com.facebook.fresco:imagepipeline-base:2.0.0] /Users/facosta/.gradle/caches/transforms-2/files-2.1/f36f1b3282a828b270c2e450016f2a56/AndroidManifest.xml:5:5-7:41
MERGED from [com.facebook.soloader:soloader:0.6.0] /Users/facosta/.gradle/caches/transforms-2/files-2.1/e2b313caecc9950a615aee15e0a372af/AndroidManifest.xml:7:5-9:41
MERGED from [com.facebook.soloader:soloader:0.6.0] /Users/facosta/.gradle/caches/transforms-2/files-2.1/e2b313caecc9950a615aee15e0a372af/AndroidManifest.xml:7:5-9:41
MERGED from [androidx.fragment:fragment:1.0.0] /Users/facosta/.gradle/caches/transforms-2/files-2.1/8e9e6ca8268a59ee4a4cfa88586ca5c2/AndroidManifest.xml:20:5-44
MERGED from [androidx.fragment:fragment:1.0.0] /Users/facosta/.gradle/caches/transforms-2/files-2.1/8e9e6ca8268a59ee4a4cfa88586ca5c2/AndroidManifest.xml:20:5-44
MERGED from [androidx.vectordrawable:vectordrawable-animated:1.0.0] /Users/facosta/.gradle/caches/transforms-2/files-2.1/90179b4ec17ff75af8bfb51c7877e78c/AndroidManifest.xml:20:5-44
MERGED from [androidx.vectordrawable:vectordrawable-animated:1.0.0] /Users/facosta/.gradle/caches/transforms-2/files-2.1/90179b4ec17ff75af8bfb51c7877e78c/AndroidManifest.xml:20:5-44
MERGED from [androidx.legacy:legacy-support-core-ui:1.0.0] /Users/facosta/.gradle/caches/transforms-2/files-2.1/1e2eb27353db9129538c0e3574f87253/AndroidManifest.xml:20:5-44
MERGED from [androidx.legacy:legacy-support-core-ui:1.0.0] /Users/facosta/.gradle/caches/transforms-2/files-2.1/1e2eb27353db9129538c0e3574f87253/AndroidManifest.xml:20:5-44
MERGED from [androidx.legacy:legacy-support-core-utils:1.0.0] /Users/facosta/.gradle/caches/transforms-2/files-2.1/858c22f1f614adeb1c92937cc25d1f8c/AndroidManifest.xml:20:5-44
MERGED from [androidx.legacy:legacy-support-core-utils:1.0.0] /Users/facosta/.gradle/caches/transforms-2/files-2.1/858c22f1f614adeb1c92937cc25d1f8c/AndroidManifest.xml:20:5-44
MERGED from [androidx.vectordrawable:vectordrawable:1.0.1] /Users/facosta/.gradle/caches/transforms-2/files-2.1/3059cba55cd238c015401e5a8b76f334/AndroidManifest.xml:20:5-44
MERGED from [androidx.vectordrawable:vectordrawable:1.0.1] /Users/facosta/.gradle/caches/transforms-2/files-2.1/3059cba55cd238c015401e5a8b76f334/AndroidManifest.xml:20:5-44
MERGED from [androidx.loader:loader:1.0.0] /Users/facosta/.gradle/caches/transforms-2/files-2.1/148daff687f034a6d447b496a7163d39/AndroidManifest.xml:20:5-44
MERGED from [androidx.loader:loader:1.0.0] /Users/facosta/.gradle/caches/transforms-2/files-2.1/148daff687f034a6d447b496a7163d39/AndroidManifest.xml:20:5-44
MERGED from [androidx.viewpager:viewpager:1.0.0] /Users/facosta/.gradle/caches/transforms-2/files-2.1/8d54a97091973d423bdedc98696b55f2/AndroidManifest.xml:20:5-44
MERGED from [androidx.viewpager:viewpager:1.0.0] /Users/facosta/.gradle/caches/transforms-2/files-2.1/8d54a97091973d423bdedc98696b55f2/AndroidManifest.xml:20:5-44
MERGED from [androidx.coordinatorlayout:coordinatorlayout:1.0.0] /Users/facosta/.gradle/caches/transforms-2/files-2.1/8c507400dcc61a90e89f4a57da137c7d/AndroidManifest.xml:20:5-44
MERGED from [androidx.coordinatorlayout:coordinatorlayout:1.0.0] /Users/facosta/.gradle/caches/transforms-2/files-2.1/8c507400dcc61a90e89f4a57da137c7d/AndroidManifest.xml:20:5-44
MERGED from [androidx.drawerlayout:drawerlayout:1.0.0] /Users/facosta/.gradle/caches/transforms-2/files-2.1/10ab428b9272cf763183a22b4c6b67c0/AndroidManifest.xml:20:5-44
MERGED from [androidx.drawerlayout:drawerlayout:1.0.0] /Users/facosta/.gradle/caches/transforms-2/files-2.1/10ab428b9272cf763183a22b4c6b67c0/AndroidManifest.xml:20:5-44
MERGED from [androidx.slidingpanelayout:slidingpanelayout:1.0.0] /Users/facosta/.gradle/caches/transforms-2/files-2.1/c923fc88e14c95487324f0376ae4fbe8/AndroidManifest.xml:20:5-44
MERGED from [androidx.slidingpanelayout:slidingpanelayout:1.0.0] /Users/facosta/.gradle/caches/transforms-2/files-2.1/c923fc88e14c95487324f0376ae4fbe8/AndroidManifest.xml:20:5-44
MERGED from [androidx.customview:customview:1.0.0] /Users/facosta/.gradle/caches/transforms-2/files-2.1/640c709c5324d5937e383a3fa5919fdb/AndroidManifest.xml:20:5-44
MERGED from [androidx.customview:customview:1.0.0] /Users/facosta/.gradle/caches/transforms-2/files-2.1/640c709c5324d5937e383a3fa5919fdb/AndroidManifest.xml:20:5-44
MERGED from [androidx.swiperefreshlayout:swiperefreshlayout:1.0.0] /Users/facosta/.gradle/caches/transforms-2/files-2.1/ad0bbf7b8809cecb8ade02eba7ecfc5d/AndroidManifest.xml:20:5-44
MERGED from [androidx.swiperefreshlayout:swiperefreshlayout:1.0.0] /Users/facosta/.gradle/caches/transforms-2/files-2.1/ad0bbf7b8809cecb8ade02eba7ecfc5d/AndroidManifest.xml:20:5-44
MERGED from [androidx.asynclayoutinflater:asynclayoutinflater:1.0.0] /Users/facosta/.gradle/caches/transforms-2/files-2.1/828adcd6dcc879879b4f39fe6f07dfe3/AndroidManifest.xml:20:5-44
MERGED from [androidx.asynclayoutinflater:asynclayoutinflater:1.0.0] /Users/facosta/.gradle/caches/transforms-2/files-2.1/828adcd6dcc879879b4f39fe6f07dfe3/AndroidManifest.xml:20:5-44
MERGED from [androidx.core:core:1.0.1] /Users/facosta/.gradle/caches/transforms-2/files-2.1/149abca8e861b25287910ecf55a4dd90/AndroidManifest.xml:20:5-44
MERGED from [androidx.core:core:1.0.1] /Users/facosta/.gradle/caches/transforms-2/files-2.1/149abca8e861b25287910ecf55a4dd90/AndroidManifest.xml:20:5-44
MERGED from [androidx.versionedparcelable:versionedparcelable:1.0.0] /Users/facosta/.gradle/caches/transforms-2/files-2.1/a7ffca991219aee7e5a5f6ddfa171c27/AndroidManifest.xml:20:5-44
MERGED from [androidx.versionedparcelable:versionedparcelable:1.0.0] /Users/facosta/.gradle/caches/transforms-2/files-2.1/a7ffca991219aee7e5a5f6ddfa171c27/AndroidManifest.xml:20:5-44
MERGED from [androidx.cursoradapter:cursoradapter:1.0.0] /Users/facosta/.gradle/caches/transforms-2/files-2.1/715d0603bb76c5ddd38b3f4709dfe2f3/AndroidManifest.xml:20:5-44
MERGED from [androidx.cursoradapter:cursoradapter:1.0.0] /Users/facosta/.gradle/caches/transforms-2/files-2.1/715d0603bb76c5ddd38b3f4709dfe2f3/AndroidManifest.xml:20:5-44
MERGED from [androidx.lifecycle:lifecycle-runtime:2.0.0] /Users/facosta/.gradle/caches/transforms-2/files-2.1/9d6a297c9b8240995fd1e9f129ee0c86/AndroidManifest.xml:20:5-44
MERGED from [androidx.lifecycle:lifecycle-runtime:2.0.0] /Users/facosta/.gradle/caches/transforms-2/files-2.1/9d6a297c9b8240995fd1e9f129ee0c86/AndroidManifest.xml:20:5-44
MERGED from [androidx.documentfile:documentfile:1.0.0] /Users/facosta/.gradle/caches/transforms-2/files-2.1/770d46a84ad5a29e647c958b27dca823/AndroidManifest.xml:20:5-44
MERGED from [androidx.documentfile:documentfile:1.0.0] /Users/facosta/.gradle/caches/transforms-2/files-2.1/770d46a84ad5a29e647c958b27dca823/AndroidManifest.xml:20:5-44
MERGED from [androidx.localbroadcastmanager:localbroadcastmanager:1.0.0] /Users/facosta/.gradle/caches/transforms-2/files-2.1/b8073cf0a6c23cb126f04d3da4fc9a08/AndroidManifest.xml:20:5-44
MERGED from [androidx.localbroadcastmanager:localbroadcastmanager:1.0.0] /Users/facosta/.gradle/caches/transforms-2/files-2.1/b8073cf0a6c23cb126f04d3da4fc9a08/AndroidManifest.xml:20:5-44
MERGED from [androidx.print:print:1.0.0] /Users/facosta/.gradle/caches/transforms-2/files-2.1/23a9c2a4ab32e5f0dbeaca113b479da5/AndroidManifest.xml:20:5-44
MERGED from [androidx.print:print:1.0.0] /Users/facosta/.gradle/caches/transforms-2/files-2.1/23a9c2a4ab32e5f0dbeaca113b479da5/AndroidManifest.xml:20:5-44
MERGED from [androidx.lifecycle:lifecycle-viewmodel:2.0.0] /Users/facosta/.gradle/caches/transforms-2/files-2.1/655e807d4d7c62411e7cae5070c4f68c/AndroidManifest.xml:20:5-44
MERGED from [androidx.lifecycle:lifecycle-viewmodel:2.0.0] /Users/facosta/.gradle/caches/transforms-2/files-2.1/655e807d4d7c62411e7cae5070c4f68c/AndroidManifest.xml:20:5-44
MERGED from [androidx.lifecycle:lifecycle-livedata:2.0.0] /Users/facosta/.gradle/caches/transforms-2/files-2.1/ef7205cebcf2d150e0d4aaff48c86eb1/AndroidManifest.xml:20:5-44
MERGED from [androidx.lifecycle:lifecycle-livedata:2.0.0] /Users/facosta/.gradle/caches/transforms-2/files-2.1/ef7205cebcf2d150e0d4aaff48c86eb1/AndroidManifest.xml:20:5-44
MERGED from [androidx.lifecycle:lifecycle-livedata-core:2.0.0] /Users/facosta/.gradle/caches/transforms-2/files-2.1/cebf511fd438599ee588a26939fa305f/AndroidManifest.xml:20:5-44
MERGED from [androidx.lifecycle:lifecycle-livedata-core:2.0.0] /Users/facosta/.gradle/caches/transforms-2/files-2.1/cebf511fd438599ee588a26939fa305f/AndroidManifest.xml:20:5-44
MERGED from [androidx.arch.core:core-runtime:2.0.0] /Users/facosta/.gradle/caches/transforms-2/files-2.1/8a8bdcc8043cce11d5425794a3d68725/AndroidManifest.xml:20:5-44
MERGED from [androidx.arch.core:core-runtime:2.0.0] /Users/facosta/.gradle/caches/transforms-2/files-2.1/8a8bdcc8043cce11d5425794a3d68725/AndroidManifest.xml:20:5-44
MERGED from [androidx.interpolator:interpolator:1.0.0] /Users/facosta/.gradle/caches/transforms-2/files-2.1/6e2731dcd5b27a722bd9d7b87dbba77b/AndroidManifest.xml:20:5-44
MERGED from [androidx.interpolator:interpolator:1.0.0] /Users/facosta/.gradle/caches/transforms-2/files-2.1/6e2731dcd5b27a722bd9d7b87dbba77b/AndroidManifest.xml:20:5-44
MERGED from [com.facebook.fresco:fbcore:2.0.0] /Users/facosta/.gradle/caches/transforms-2/files-2.1/f39959c290cf3610d3d9160d2906eafd/AndroidManifest.xml:5:5-7:41
MERGED from [com.facebook.fresco:fbcore:2.0.0] /Users/facosta/.gradle/caches/transforms-2/files-2.1/f39959c290cf3610d3d9160d2906eafd/AndroidManifest.xml:5:5-7:41
INJECTED from /Users/facosta/Desktop/ant_race_sg/android/app/src/debug/AndroidManifest.xml
INJECTED from /Users/facosta/Desktop/ant_race_sg/android/app/src/debug/AndroidManifest.xml
	android:targetSdkVersion
		INJECTED from /Users/facosta/Desktop/ant_race_sg/android/app/src/main/AndroidManifest.xml
		INJECTED from /Users/facosta/Desktop/ant_race_sg/android/app/src/debug/AndroidManifest.xml
	android:minSdkVersion
		INJECTED from /Users/facosta/Desktop/ant_race_sg/android/app/src/main/AndroidManifest.xml
		INJECTED from /Users/facosta/Desktop/ant_race_sg/android/app/src/debug/AndroidManifest.xml
uses-permission#android.permission.SYSTEM_ALERT_WINDOW
ADDED from /Users/facosta/Desktop/ant_race_sg/android/app/src/debug/AndroidManifest.xml:5:5-77
	android:name
		ADDED from /Users/facosta/Desktop/ant_race_sg/android/app/src/debug/AndroidManifest.xml:5:22-75
